{
  "id": "5eb56c04500b7200071472a2",
  "email": "testuser@example.com",
  "lastLogin": null,
  "deleted": false,
  "enabled": true,
  "passwordChanged": true,
  "username": "Test User",
  "deletionRequestedAt": null,
  "description": null,
  "emailValidated": true,
  "gender": null,
  "locale": "de_DE",
  "_meta": {
    "hasPermissions": false,
    "permissionCount": 0,
    "company": null
  },
  "profileImage": "5eb5a6800db0ba79e3131a26",
  "properties": {
    "onboardingFinished": true
  },
  "createdAt": "2020-05-08T14:26:12.766+0000",
  "receiveAdminNotifications": true,
  "phoneNumber": null,
  "type": null,
  "publicProfile": true,
  "externalId": null,
  "tenantIDs": {
    "5e843f64c37bcf3b2f144376": null
  },
  "vacationSetting": null,
  "inviteEmailSent": null,
  "readOnly": false,
  "nativeAppInstallIds": [
    "f19c53ae-3f50-42b7-958d-4919b0385954"
  ],
  "sendPushNotifications": false,
  "communicationPreferences": [
    {
      "channels": [
        "push"
      ],
      "event": "community-article.published"
    },
    {
      "channels": [
        "push"
      ],
      "event": "community-article.comment.created"
    },
    {
      "channels": [
        "push"
      ],
      "event": "ticket.conversation.message.created"
    },
    {
      "channels": [
        "push"
      ],
      "event": "ticket.updated"
    },
    {
      "channels": [
        "push"
      ],
      "event": "thing.created"
    }
  ],
  "_links": {
    "self": {
      "href": "/api/v1/users/5eb56c04500b7200071472a2"
    },
    "things": {
      "href": "/api/v1/users/5eb56c04500b7200071472a2/things"
    },
    "apps": {
      "href": "/api/v1/users/5eb56c04500b7200071472a2/apps"
    },
    "permissions": {
      "href": "/api/v1/users/5eb56c04500b7200071472a2/permissions"
    },
    "utilisationPeriods": {
      "href": "/api/v1/users/5eb56c04500b7200071472a2/utilisation-periods"
    },
    "tenancyPeriods": {
      "href": "/api/v1/users/5eb56c04500b7200071472a2/utilisation-periods"
    },
    "articles": {
      "href": "/api/v1/users/5eb56c04500b7200071472a2/articles"
    },
    "communityArticles": {
      "href": "/api/v1/users/5eb56c04500b7200071472a2/community-articles"
    }
  },
  "_embedded": {
    "company": null,
    "externalAgentCompany": null,
    "profileImage": {
      "name": "blob",
      "type": "image/jpeg",
      "size": 73162,
      "description": null,
      "originalFilename": "blob",
      "extension": "jpeg",
      "category": "download",
      "id": "5eb5a6800db0ba79e3131a26",
      "createdAt": "2020-05-08T18:35:44.767+0000",
      "path": "",
      "deletedAt": null,
      "_links": {
        "self": {
          "href": "/api/v1/files/5eb5a6800db0ba79e3131a26"
        }
      },
      "files": {
        "192x192": {
          "url": "https://cloud.allthings.me/default/f1f54761cd957951d81dfb8ff5c39058_5eb5a680c4e82_a857ab906ac68e03438142180bb5eebd_192x192.jpg",
          "size": 8768,
          "width": 192,
          "height": 192
        },
        "32x32": {
          "url": "https://cloud.allthings.me/default/f1f54761cd957951d81dfb8ff5c39058_5eb5a680c4e82_a857ab906ac68e03438142180bb5eebd_32x32.jpg",
          "size": 731,
          "width": 32,
          "height": 32
        },
        "big": {
          "url": "https://cloud.allthings.me/default/f1f54761cd957951d81dfb8ff5c39058_5eb5a680c4e82_a857ab906ac68e03438142180bb5eebd_b.jpg",
          "size": 73162,
          "width": 800,
          "height": 800
        },
        "medium": {
          "url": "https://cloud.allthings.me/default/f1f54761cd957951d81dfb8ff5c39058_5eb5a680c4e82_a857ab906ac68e03438142180bb5eebd_m.jpg",
          "size": 73162,
          "width": 800,
          "height": 800
        },
        "original": {
          "url": "https://cloud.allthings.me/default/f1f54761cd957951d81dfb8ff5c39058_5eb5a680c4e82_a857ab906ac68e03438142180bb5eebd_o.jpg",
          "size": 73162,
          "width": 800,
          "height": 800
        },
        "small": {
          "url": "https://cloud.allthings.me/default/f1f54761cd957951d81dfb8ff5c39058_5eb5a680c4e82_a857ab906ac68e03438142180bb5eebd_s.jpg",
          "size": 26452,
          "width": 400,
          "height": 400
        },
        "thumb": {
          "url": "https://cloud.allthings.me/default/f1f54761cd957951d81dfb8ff5c39058_5eb5a680c4e82_a857ab906ac68e03438142180bb5eebd_t.jpg",
          "size": 9700,
          "width": 200,
          "height": 200
        }
      },
      "_embedded": {
        "files": {
          "192x192": {
            "url": "https://cloud.allthings.me/default/f1f54761cd957951d81dfb8ff5c39058_5eb5a680c4e82_a857ab906ac68e03438142180bb5eebd_192x192.jpg",
            "size": 8768,
            "width": 192,
            "height": 192
          },
          "32x32": {
            "url": "https://cloud.allthings.me/default/f1f54761cd957951d81dfb8ff5c39058_5eb5a680c4e82_a857ab906ac68e03438142180bb5eebd_32x32.jpg",
            "size": 731,
            "width": 32,
            "height": 32
          },
          "big": {
            "url": "https://cloud.allthings.me/default/f1f54761cd957951d81dfb8ff5c39058_5eb5a680c4e82_a857ab906ac68e03438142180bb5eebd_b.jpg",
            "size": 73162,
            "width": 800,
            "height": 800
          },
          "medium": {
            "url": "https://cloud.allthings.me/default/f1f54761cd957951d81dfb8ff5c39058_5eb5a680c4e82_a857ab906ac68e03438142180bb5eebd_m.jpg",
            "size": 73162,
            "width": 800,
            "height": 800
          },
          "original": {
            "url": "https://cloud.allthings.me/default/f1f54761cd957951d81dfb8ff5c39058_5eb5a680c4e82_a857ab906ac68e03438142180bb5eebd_o.jpg",
            "size": 73162,
            "width": 800,
            "height": 800
          },
          "small": {
            "url": "https://cloud.allthings.me/default/f1f54761cd957951d81dfb8ff5c39058_5eb5a680c4e82_a857ab906ac68e03438142180bb5eebd_s.jpg",
            "size": 26452,
            "width": 400,
            "height": 400
          },
          "thumb": {
            "url": "https://cloud.allthings.me/default/f1f54761cd957951d81dfb8ff5c39058_5eb5a680c4e82_a857ab906ac68e03438142180bb5eebd_t.jpg",
            "size": 9700,
            "width": 200,
            "height": 200
          }
        }
      },
      "seenByMe": true
    },
    "notificationSettings": {
      "admin-messages": "immediately",
      "app-digest-email": "daily",
      "ticket-digest-email": "daily"
    },
    "permissions": [],
    "utilisationPeriods": [],
    "organization": null
  },
  "roles": []
}
